last updated: 2023/02/01

Android		GrapheneOS	DivestOS 14.1	DivestOS 15.1	DivestOS 16.0	DivestOS 17.1	DivestOS 18.1	DivestOS 19.1	DivestOS 20.0	CalyxOS		/e/OS
2023-01-03	2023-01-03	2023-01-06	2023-01-08	2023-01-08	2023-01-07	2023-01-08	2023-01-08	2023-01-09	2023-01-05
2022-12-05	2022-12-06	2022-12-10	2022-12-12	2022-12-12	2022-12-09	2022-12-09	2022-12-10	2022-12-11	2022-12-09
2022-11-07	2022-11-08	2022-11-13	2022-11-14	2022-11-13	2022-11-11	2022-11-11	2022-11-12	2022-11-13	2022-11-10	2023-01-16
2022-10-03	2022-10-03	2022-10-14	2022-10-19	2022-10-19	2022-10-07	2022-10-08	2022-10-09	2022-10-16	2022-10-07	2022-11-30
2022-09-06	2022-09-06	2022-09-11	2022-09-11	2022-09-10	2022-09-08	2022-09-09	2022-09-08	^initial	2022-09-10	2022-11-02
2022-08-01	2022-08-05	2022-08-05	2022-08-13	2022-08-08	2022-08-06	2022-08-07	2022-08-08			2022-09-02	2022-09-26
2022-07-06	2022-07-06	2022-07-09	behind		2022-07-15	2022-07-10	2022-07-11	2022-07-13			2022-07-08	2022-08-29
2022-06-06	2022-06-07	2022-06-12	behind		2022-06-15	2022-06-12	2022-06-13	2022-06-14			2022-06-08	2022-07-27
2022-05-02	2022-05-03	2022-05-09	behind		2022-05-08	2022-05-08	2022-05-09	2022-05-11			2022-05-04	2022-06-28
2022-04-04	2022-04-04	2022-04-08	behind		2022-04-09	2022-04-07	2022-04-08	2022-04-06			2022-04-05	2022-05-31
2022-03-07	2022-03-08	2022-03-10	behind		2022-03-19	2022-03-11	2022-03-14	^initial			2022-03-14	behind
2022-02-07	2022-02-08	2022-02-24	2022-02-24	2022-02-24	2022-02-11	2022-02-13					2022-02-11	2022-03-15
2022-01-04	2022-01-05	2022-01-19	2022-01-28	2022-01-12	2022-01-12	2022-01-16					2022-01-19	2022-02-22
2021-12-06	2021-12-07	2021-12-17	2021-12-17	2021-12-17	2021-12-13	2021-12-13					behind		2022-01-20
2021-11-01	2021-11-01	2021-11-06	2021-11-09	2021-11-06	2021-11-06	2021-11-07					2021-11-08	2021-12-16
2021-10-04	2021-10-05	2021-10-07	2021-10-07	2021-10-07	2021-10-07	2021-10-10					2021-10-08	behind
2021-09-07	2021-09-08	2021-09-12	2021-09-12	2021-09-12	2021-09-12	2021-09-14					2021-09-09	2021-10-28
2021-08-02	2021-08-03	2021-08-06	2021-08-06	2021-08-06	2021-08-06	2021-08-07					2021-08-05	2021-08-18
2021-07-07	2021-07-07	2021-07-12	2021-07-18	2021-07-17	2021-07-13	2021-07-14					2021-07-09	behind
2021-06-06	2021-06-08	2021-06-12	2021-06-11	2021-06-11	2021-06-12	2021-06-15					2021-06-10	behind
2021-05-03	2021-05-04	2021-05-08	2021-05-08	2021-05-08	2021-05-09	2021-05-10					2021-05-06	2021-06-10
2021-04-05	2021-04-05	2021-04-11	2021-04-11	2021-04-11	2021-04-12	2021-04-13					2021-04-08	behind
2021-03-01	2021-03-02	[		2021-03-05 through 2021-03-08		]	^initial					2021-03-04	2021-04-14
2021-02-01	2021-02-02	[		2021-02-06 through 2021-02-08		]							2021-02-03	2021-03-15
2021-01-04	2021-01-05	[		2021-01-10 through 2021-01-14		]							2021-01-26	2021-01-27

Notes:
- Final dates, not earlier RC or test builds
- DivestOS 14.1/15.1/16.0, based on Android 7/8/9 respectively, are END OF LIFE and receive patches on best effort basis
- For ease of maintenance, the /e/OS column only tracks dates of the earliest branch that received the update

Useful links:
- https://source.android.com/security/bulletin
- https://divestos.org/index.php?page=news
- https://grapheneos.org/releases#changelog
- https://calyxos.org/news
- https://gitlab.e.foundation/e/os/releases/-/releases

See also the OS overview here: https://divestos.org/index.php?page=patch_levels#osSecurity
And the (DivestOS specific) patch counts table here: https://divestos.org/index.php?page=patch_counts

See something wrong? Open an issue or merge request:
- https://gitlab.com/Divested-Mobile/DivestOS-Website/-/blob/master/misc/a-dates.txt
- https://github.com/Divested-Mobile/DivestOS-Website/blob/master/misc/a-dates.txt
